%YAML 1.1
%TAG !u! tag:unity3d.com,2011:
--- !u!74 &7400000
AnimationClip:
  m_ObjectHideFlags: 0
  m_CorrespondingSourceObject: {fileID: 0}
  m_PrefabInstance: {fileID: 0}
  m_PrefabAsset: {fileID: 0}
  m_Name: Coin_Animation
  serializedVersion: 6
  m_Legacy: 0
  m_Compressed: 0
  m_UseHighQualityCurve: 1
  m_RotationCurves: []
  m_CompressedRotationCurves: []
  m_EulerCurves: []
  m_PositionCurves: []
  m_ScaleCurves: []
  m_FloatCurves: []
  m_PPtrCurves:
  - curve:
    - time: 0
      value: {fileID: -3338749442709606003, guid: 27fbd349247c8dc46a3112ada3a53fc7,
        type: 3}
    - time: 0.05
      value: {fileID: 5848064539680731454, guid: 27fbd349247c8dc46a3112ada3a53fc7,
        type: 3}
    - time: 0.1
      value: {fileID: -2652133911391862278, guid: 27fbd349247c8dc46a3112ada3a53fc7,
        type: 3}
    - time: 0.15
      value: {fileID: 5522397121026081838, guid: 27fbd349247c8dc46a3112ada3a53fc7,
        type: 3}
    - time: 0.2
      value: {fileID: 4786861022352539597, guid: 27fbd349247c8dc46a3112ada3a53fc7,
        type: 3}
    - time: 0.25
      value: {fileID: 5728404248119495573, guid: 27fbd349247c8dc46a3112ada3a53fc7,
        type: 3}
    - time: 0.3
      value: {fileID: -205620266705300115, guid: 27fbd349247c8dc46a3112ada3a53fc7,
        type: 3}
    - time: 0.35
      value: {fileID: 914892611379245800, guid: 27fbd349247c8dc46a3112ada3a53fc7,
        type: 3}
    - time: 0.4
      value: {fileID: 3329141895401553498, guid: 27fbd349247c8dc46a3112ada3a53fc7,
        type: 3}
    - time: 0.45
      value: {fileID: 8372122516928991645, guid: 27fbd349247c8dc46a3112ada3a53fc7,
        type: 3}
    - time: 0.5
      value: {fileID: -384682377793776093, guid: 27fbd349247c8dc46a3112ada3a53fc7,
        type: 3}
    - time: 0.55
      value: {fileID: -3827399151014857529, guid: 27fbd349247c8dc46a3112ada3a53fc7,
        type: 3}
    - time: 0.6
      value: {fileID: 1001771044528292959, guid: 27fbd349247c8dc46a3112ada3a53fc7,
        type: 3}
    - time: 0.65
      value: {fileID: 3815007995444924852, guid: 27fbd349247c8dc46a3112ada3a53fc7,
        type: 3}
    - time: 0.7
      value: {fileID: 7124526669896397641, guid: 27fbd349247c8dc46a3112ada3a53fc7,
        type: 3}
    - time: 0.75
      value: {fileID: -507253698090632082, guid: 27fbd349247c8dc46a3112ada3a53fc7,
        type: 3}
    attribute: m_Sprite
    path: 
    classID: 212
    script: {fileID: 0}
  m_SampleRate: 60
  m_WrapMode: 0
  m_Bounds:
    m_Center: {x: 0, y: 0, z: 0}
    m_Extent: {x: 0, y: 0, z: 0}
  m_ClipBindingConstant:
    genericBindings:
    - serializedVersion: 2
      path: 0
      attribute: 0
      script: {fileID: 0}
      typeID: 212
      customType: 23
      isPPtrCurve: 1
    pptrCurveMapping:
    - {fileID: -3338749442709606003, guid: 27fbd349247c8dc46a3112ada3a53fc7, type: 3}
    - {fileID: 5848064539680731454, guid: 27fbd349247c8dc46a3112ada3a53fc7, type: 3}
    - {fileID: -2652133911391862278, guid: 27fbd349247c8dc46a3112ada3a53fc7, type: 3}
    - {fileID: 5522397121026081838, guid: 27fbd349247c8dc46a3112ada3a53fc7, type: 3}
    - {fileID: 4786861022352539597, guid: 27fbd349247c8dc46a3112ada3a53fc7, type: 3}
    - {fileID: 5728404248119495573, guid: 27fbd349247c8dc46a3112ada3a53fc7, type: 3}
    - {fileID: -205620266705300115, guid: 27fbd349247c8dc46a3112ada3a53fc7, type: 3}
    - {fileID: 914892611379245800, guid: 27fbd349247c8dc46a3112ada3a53fc7, type: 3}
    - {fileID: 3329141895401553498, guid: 27fbd349247c8dc46a3112ada3a53fc7, type: 3}
    - {fileID: 8372122516928991645, guid: 27fbd349247c8dc46a3112ada3a53fc7, type: 3}
    - {fileID: -384682377793776093, guid: 27fbd349247c8dc46a3112ada3a53fc7, type: 3}
    - {fileID: -3827399151014857529, guid: 27fbd349247c8dc46a3112ada3a53fc7, type: 3}
    - {fileID: 1001771044528292959, guid: 27fbd349247c8dc46a3112ada3a53fc7, type: 3}
    - {fileID: 3815007995444924852, guid: 27fbd349247c8dc46a3112ada3a53fc7, type: 3}
    - {fileID: 7124526669896397641, guid: 27fbd349247c8dc46a3112ada3a53fc7, type: 3}
    - {fileID: -507253698090632082, guid: 27fbd349247c8dc46a3112ada3a53fc7, type: 3}
  m_AnimationClipSettings:
    serializedVersion: 2
    m_AdditiveReferencePoseClip: {fileID: 0}
    m_AdditiveReferencePoseTime: 0
    m_StartTime: 0
    m_StopTime: 0.76666665
    m_OrientationOffsetY: 0
    m_Level: 0
    m_CycleOffset: 0
    m_HasAdditiveReferencePose: 0
    m_LoopTime: 1
    m_LoopBlend: 0
    m_LoopBlendOrientation: 0
    m_LoopBlendPositionY: 0
    m_LoopBlendPositionXZ: 0
    m_KeepOriginalOrientation: 0
    m_KeepOriginalPositionY: 1
    m_KeepOriginalPositionXZ: 0
    m_HeightFromFeet: 0
    m_Mirror: 0
  m_EditorCurves: []
  m_EulerEditorCurves: []
  m_HasGenericRootTransform: 0
  m_HasMotionFloatCurves: 0
  m_Events: []
