%YAML 1.1
%TAG !u! tag:unity3d.com,2011:
--- !u!74 &7400000
AnimationClip:
  m_ObjectHideFlags: 0
  m_CorrespondingSourceObject: {fileID: 0}
  m_PrefabInstance: {fileID: 0}
  m_PrefabAsset: {fileID: 0}
  m_Name: RedChestOpening
  serializedVersion: 6
  m_Legacy: 0
  m_Compressed: 0
  m_UseHighQualityCurve: 1
  m_RotationCurves: []
  m_CompressedRotationCurves: []
  m_EulerCurves: []
  m_PositionCurves: []
  m_ScaleCurves: []
  m_FloatCurves: []
  m_PPtrCurves:
  - curve:
    - time: 0
      value: {fileID: 21300000, guid: 0df83e8524ff54548ab3b7a1ee0feb50, type: 3}
    - time: 0.083333336
      value: {fileID: 21300000, guid: e3cd498ad3ea40d40aa6d7ed60c225cd, type: 3}
    - time: 0.16666667
      value: {fileID: 21300000, guid: 301349a3ba1998c4785fb11cb3771d7f, type: 3}
    - time: 0.25
      value: {fileID: 21300000, guid: 0bac16c6886fe4d4eabae57fda070381, type: 3}
    - time: 0.33333334
      value: {fileID: 21300000, guid: 0df0d18803effac4f8bc33a57d11a0e8, type: 3}
    - time: 0.41666666
      value: {fileID: 21300000, guid: ec2607e01e4b3b94f8912ea119deaee6, type: 3}
    - time: 0.5
      value: {fileID: 21300000, guid: f5457a7b3d374b34e9aef2c50f98c1e6, type: 3}
    - time: 0.5833333
      value: {fileID: 21300000, guid: 57f8c3020b4ce1947963f4dd77c079f6, type: 3}
    - time: 0.6666667
      value: {fileID: 21300000, guid: 649e3156b9c3c78469eb7b35bc618638, type: 3}
    attribute: m_Sprite
    path: 
    classID: 212
    script: {fileID: 0}
  m_SampleRate: 60
  m_WrapMode: 0
  m_Bounds:
    m_Center: {x: 0, y: 0, z: 0}
    m_Extent: {x: 0, y: 0, z: 0}
  m_ClipBindingConstant:
    genericBindings:
    - serializedVersion: 2
      path: 0
      attribute: 0
      script: {fileID: 0}
      typeID: 212
      customType: 23
      isPPtrCurve: 1
    pptrCurveMapping:
    - {fileID: 21300000, guid: 0df83e8524ff54548ab3b7a1ee0feb50, type: 3}
    - {fileID: 21300000, guid: e3cd498ad3ea40d40aa6d7ed60c225cd, type: 3}
    - {fileID: 21300000, guid: 301349a3ba1998c4785fb11cb3771d7f, type: 3}
    - {fileID: 21300000, guid: 0bac16c6886fe4d4eabae57fda070381, type: 3}
    - {fileID: 21300000, guid: 0df0d18803effac4f8bc33a57d11a0e8, type: 3}
    - {fileID: 21300000, guid: ec2607e01e4b3b94f8912ea119deaee6, type: 3}
    - {fileID: 21300000, guid: f5457a7b3d374b34e9aef2c50f98c1e6, type: 3}
    - {fileID: 21300000, guid: 57f8c3020b4ce1947963f4dd77c079f6, type: 3}
    - {fileID: 21300000, guid: 649e3156b9c3c78469eb7b35bc618638, type: 3}
  m_AnimationClipSettings:
    serializedVersion: 2
    m_AdditiveReferencePoseClip: {fileID: 0}
    m_AdditiveReferencePoseTime: 0
    m_StartTime: 0
    m_StopTime: 0.68333334
    m_OrientationOffsetY: 0
    m_Level: 0
    m_CycleOffset: 0
    m_HasAdditiveReferencePose: 0
    m_LoopTime: 0
    m_LoopBlend: 0
    m_LoopBlendOrientation: 0
    m_LoopBlendPositionY: 0
    m_LoopBlendPositionXZ: 0
    m_KeepOriginalOrientation: 0
    m_KeepOriginalPositionY: 1
    m_KeepOriginalPositionXZ: 0
    m_HeightFromFeet: 0
    m_Mirror: 0
  m_EditorCurves: []
  m_EulerEditorCurves: []
  m_HasGenericRootTransform: 0
  m_HasMotionFloatCurves: 0
  m_Events:
  - time: 0.68333334
    functionName: ActivateObjects
    data: 
    objectReferenceParameter: {fileID: 0}
    floatParameter: 0
    intParameter: 0
    messageOptions: 0
